4 Atividades | Anotações do treinamento R
…
AISP 11 - Tancredo Neves,AISP 10 - Pau da Lima e AISP 13 - Cajazeiras;

Definicao de um ano especifico, para os últimos 12 meses válidos é 2019;

Seleção de variáveis Homicídios e Lesão Seguida de Morte

4.4.1 Código filtros e seleções

dados %>% filter(aisp %in%  c('AISP 11 - Tancredo Neves',
                 'AISP 10 - Pau da Lima',
                 'AISP 13 - Cajazeiras')) %>%
          filter(ano==2019) %>%
  select(mes,homicidios,lesao_morte) 

## # A tibble: 36 x 3
##      mes homicidios lesao_morte
##    <dbl>      <dbl>       <dbl>
##  1     1          7           0
##  2     1         10           0
##  3     1          4           0
##  4     2          5           0
##  5     2          6           0
##  6     2          1           0
##  7     3          6           0
##  8     3         17           0
##  9     3         10           1
## 10     4          3           0
## # … with 26 more rows
…
dados %>% filter(aisp %in%  c('AISP 11 - Tancredo Neves',
                 'AISP 10 - Pau da Lima',
                 'AISP 13 - Cajazeiras')) %>%
          filter(ano==2019) %>%
  select(mes,homicidios,lesao_morte) %>%
  mutate(MES = month(ymd(190115) + months(mes - 1), label = TRUE))

## # A tibble: 36 x 4
##      mes homicidios lesao_morte MES  
##    <dbl>      <dbl>       <dbl> <ord>
##  1     1          7           0 jan  
##  2     1         10           0 jan  
##  3     1          4           0 jan  
##  4     2          5           0 fev  
##  5     2          6           0 fev  
##  6     2          1           0 fev  
##  7     3          6           0 mar  
##  8     3         17           0 mar  
##  9     3         10           1 mar  
## 10     4          3           0 abr  
## # … with 26 more rows
…
dados %>% filter(aisp %in%  c('AISP 11 - Tancredo Neves',
                 'AISP 10 - Pau da Lima',
                 'AISP 13 - Cajazeiras')) %>%
          filter(ano==2019) %>%
  select(mes,aisp,homicidios,lesao_morte) %>%
  mutate(MES = month(ymd(190115) + months(mes - 1), label = TRUE)) %>%
  gather(key = crimes,value = valores,-mes,-aisp,-MES) %>%
  arrange(MES)

## # A tibble: 72 x 5
##      mes aisp                     MES   crimes      valores
##    <dbl> <chr>                    <ord> <chr>         <dbl>
##  1     1 AISP 10 - Pau da Lima    jan   homicidios        7
##  2     1 AISP 11 - Tancredo Neves jan   homicidios       10
##  3     1 AISP 13 - Cajazeiras     jan   homicidios        4
##  4     1 AISP 10 - Pau da Lima    jan   lesao_morte       0
##  5     1 AISP 11 - Tancredo Neves jan   lesao_morte       0
##  6     1 AISP 13 - Cajazeiras     jan   lesao_morte       0
##  7     2 AISP 10 - Pau da Lima    fev   homicidios        5
##  8     2 AISP 11 - Tancredo Neves fev   homicidios        6
##  9     2 AISP 13 - Cajazeiras     fev   homicidios        1
## 10     2 AISP 10 - Pau da Lima    fev   lesao_morte       0
## # … with 62 more rows
…
